[
    "Andrew",
    "Allan",
    "Angus",
    "Anna",
    "Andrea",
    "Albit",
    "Arnold",
    "Asmodia",
    "Arendelle",
    "Anabelle",
    "Bob",
    "Bill",
    "Bernard",
    "Beatrix",
    "Bitha",
    "Bronn",
    "Bartimus",
    "Bartholomew",
    "Barty",
    "Charles",
    "Charlie",
    "Coral",
    "Cedric",
    "Cyntiah",
    "Caroline",
    "Celine",
    "Dimitry",
    "Dean",
    "Djovan",
    "Dylan",
    "Diego",
    "Danessa",
    "Eric",
    "Eldric",
    "Eren",
    "Fred",
    "Frederich",
    "Francis",
    "Foul",
    "René",
    "Randy",
    "Rudolph",
    "Thomas",
    "Tom",
    "tod",
    "Terry",
    "Tim",
    "Timothy",
    "Cassandra",
    "candace",
    "William",
    "George",
    "Georgina",
    "Jessie",
    "Jessica",
    "Jean",
    "Wanda",
    "Zachary",
    "Ginny",
    "Lilly",
    "Petunia",
    "Blossom",
    "Luna"
]