[
    {
        "id": 1,
        "name": "Gryffindor",
        "shorthand": "GFD",
        "color": "#7f0909",
        "secondary":"#FFC500"
    },
    {
        "id": 2,
        "name": "Hufflepuff",
        "shorthand": "HFP",
        "color": "#eee117",
        "secondary":"#000000"
    },
    {
        "id": 3,
        "name": "Ravenclaw",
        "shorthand": "RVC",
        "color": "#222f5b",
        "secondary":"#b87333"
    },
    {
        "id": 4,
        "name": "Slytherin",
        "shorthand": "STR",
        "color": "#0d6217",
        "secondary":"#AAAAAA"
    }
]